List of Available Weekly Options
"Standard","03/01/24","","","","","",""
"Expanded","03/01/24","03/08/24","03/22/24","04/05/24","","","","",""
"End of Week","03/01/24","03/08/24","03/22/24","04/05/24","","","","",""
"Equity/ETF/ETN (MON)","03/04/24","03/11/24","","","","","","",""
"Equity/ETF/ETN (TUE)","02/27/24","03/05/24","03/12/24","","","","","","",""
"Equity/ETF/ETN (WED)","02/28/24","03/06/24","03/13/24","","","","","","",""
"Equity/ETF/ETN (THUR)","02/29/24","03/07/24","03/28/24","","","","","","",""
"XSP (MON)","03/04/24","03/11/24","03/18/24","03/25/24","","",""
"XSP (TUE)","02/27/24","03/05/24","03/12/24","03/19/24","03/26/24","",""
"XSP (WED)","02/28/24","03/06/24","03/13/24","03/20/24","03/27/24","",""
"XSP (THUR)","03/07/24","03/14/24","03/21/24","04/04/24","","",""
"XSP (EOW)","03/01/24","03/08/24","03/22/24","04/05/24","04/12/24","",""
"SPXW (MON)","03/04/24","03/11/24","03/18/24","03/25/24","04/01/24","",""
"SPXW (TUE)","02/27/24","03/05/24","03/12/24","03/19/24","03/26/24","04/02/24","04/30/24"
"SPXW (WED)","02/28/24","03/06/24","03/13/24","03/20/24","03/27/24","04/03/24",""
"SPXW (THU)","02/29/24","03/07/24","03/14/24","03/21/24","03/28/24","04/04/24",""
"SPXW (EOW)","03/01/24","03/08/24","03/22/24","04/05/24","04/12/24","",""
"VIX","03/06/24","03/13/24","03/27/24","","","",""
"NANOS (MON)","03/04/24","","","","","",""
"NANOS (WED)","02/28/24","03/06/24","","","","",""
"NANOS (EOW)","03/01/24","","","","","",""
Available Weeklys - Exchange Traded Products (ETFs and ETNs)
"ARKG","ARK Genomic Revolution ETF"
"ARKK","ARK ETF TR INNOVATION ETF"
"ASHR","DBX ETF TR XTRACK HRVST CSI"
"BITO","PROSHARES TR BITCOIN STRATE"
"BOIL","PROSHARES TR II ULTRA BLOOMBERG"
"DIA","SPDR DOW JONES INDL AVERAGE ET UT SER 1"
"DPST","DIREXION SHS ETF TR DAILY REGIONAL"
"DUST","DIREXION SHS ETF TR DAILY GOLD MINER"
"EEM","ISHARES TR MSCI EMG MKT ETF"
"EFA","ISHARES TR MSCI EAFE ETF"
"EMB","ISHARES TR JPMORGAN USD EMG"
"ERX","DIREXION SHS ETF TR DLY ENRGY BULL2X"
"EWU","ISHARES TR MSCI UK ETF NEW"
"EWZ","ISHARES INC MSCI BRAZIL ETF"
"FAS","DIREXION SHS ETF TR DLY FIN BULL NEW"
"FAZ","DIREXION SHS ETF TR DAILY FINL BEAR"
"FEZ","SPDR INDEX SHS FDS EURO STOXX 50"
"FXI","ISHARES TR CHINA LG-CAP ETF"
"GDX","VANECK ETF TRUST GOLD MINERS ETF"
"GDXJ","VANECK ETF TRUST JUNIOR GOLD MINE"
"GLD","SPDR GOLD TR GOLD SHS"
"HYG","ISHARES TR IBOXX HI YD ETF"
"IBB","ISHARES TR ISHARES BIOTECH"
"ICLN","ISHARES TR GL CLEAN ENE ETF"
"IEF","ISHARES TR 7-10 YR TRSY BD"
"ITB","iShares U.S. Home Construction ETF"
"IVV","ISHARES TR CORE S&P500 ETF"
"IWM","ISHARES TR RUSSELL 2000 ETF"
"IYR","ISHARES TR U.S. REAL ES ETF"
"JDST","DIREXION SHS ETF TR DLY JR GOLD 2X"
"JETS","ETF SER SOLUTIONS US GLB JETS"
"JNK","SPDR SER TR BLOOMBERG HIGH Y"
"JNUG","DIREXION SHS ETF TR DAILY JR GLD MIN"
"KOLD","PROSHARES TR II ULSHT BLOOMB GAS"
"KRE","SPDR SER TR S&P REGL BKG"
"KWEB","KRANESHARES TRUST CSI CHI INTERNET"
"LABD","DIREXION SHS ETF TR DAILY S&P BIOTEC"
"LABU","DIREXION SHS ETF TR DAILY S&P BIOTCH"
"LQD","ISHARES TR IBOXX INV CP ETF"
"MSOS","ADVISORSHARES TR PURE US CANNABIS"
"NUGT","DIREXION SHS ETF TR DLY GOLD INDX 2X"
"OIH","VANECK ETF TRUST OIL SERVICES ETF"
"QQQ","INVESCO QQQ TR UNIT SER 1"
"SDOW","PROSHARES TR ULTRASHRT DOW 30"
"SLV","ISHARES SILVER TR ISHARES"
"SMH","VANECK ETF TRUST SEMICONDUCTR ETF"
"SOXL","DIREXION SHS ETF TR DLY SCOND 3XBU"
"SOXS","DIREXION SHS ETF TR DLY SEMICNDTR BR"
"SPXL","DIREXION SHS ETF TR DRX S&P500BULL"
"SPXS","DIREXION SHS ETF TR DLY S&P500 BR 3X"
"SPXU","PROSHARES TR ULTRAPRO SHORT S"
"SPY","SPDR S&P 500 ETF TR TR UNIT"
"SQQQ","PROSHARES TR ULTRAPRO SHT QQQ"
"SSO","PROSHARES TR PSHS ULT S&P 500"
"SVIX","-1x Short VIX Futures ETF"
"SVXY","ProShares Short VIX Short-Term Futures ETF"
"TAN","INVESCO EXCH TRADED FD TR II SOLAR ETF"
"TBT","PROSHARES TR PSHS ULTSH 20YRS"
"TLT","ISHARES TR 20 YR TR BD ETF"
"TMF","DIREXION SHS ETF TR DAILY 20+ YEAR T"
"TMV","DIREXION SHS ETF TR 20YR TRES BEAR"
"TNA","DIREXION SHS ETF TR DLY SMCAP BULL3X"
"TQQQ","PROSHARES TR ULTRAPRO QQQ"
"TSLL","DIREXION SHS ETF TR TSLA BULL 1.5X"
"TZA","DIREXION SHS ETF TR DAILY SM CP BEAR"
"UCO","PROSHARES TR II ULTA BLMBG 2017"
"UNG","UNITED STS NAT GAS FD LP UNIT PAR"
"UPRO","PROSHARES TR ULTRPRO S&P500"
"URA","GLOBAL X FDS GLOBAL X URANIUM"
"URNM","SPROTT FDS TR URANIUM MINERS E"
"USO","UNITED STS OIL FD LP UNITS"
"UUP","INVESCO DB US DLR INDEX TR BULLISH FD"
"UVIX","2x Long VIX Futures ETF "
"UVXY","ProShares Ultra VIX Short-Term Futures ETF"
"VIXY","ProShares VIX Short-Term Futures ETF"
"VXX","iPath Series B S&P 500 VIX Short-Term Futures ETN"
"WEAT","TEUCRIUM COMMODITY TR WHEAT FD"
"XBI","SPDR SER TR S&P BIOTECH"
"XHB","SPDR SER TR S&P HOMEBUILD"
"XLB","SELECT SECTOR SPDR TR SBI MATERIALS"
"XLC","SELECT SECTOR SPDR TR COMMUNICATION"
"XLE","SELECT SECTOR SPDR TR ENERGY"
"XLF","SELECT SECTOR SPDR TR FINANCIAL"
"XLI","SELECT SECTOR SPDR TR INDL"
"XLK","SELECT SECTOR SPDR TR TECHNOLOGY"
"XLP","SELECT SECTOR SPDR TR SBI CONS STPLS"
"XLU","SELECT SECTOR SPDR TR SBI INT-UTILS"
"XLV","SELECT SECTOR SPDR TR SBI HEALTHCARE"
"XLY","SELECT SECTOR SPDR TR SBI CONS DISCR"
"XOP","SPDR SER TR S&P OILGAS EXP"
"XRT","SPDR SER TR S&P RETAIL ETF"
"YINN","DIREXION SHS ETF TR DL FTSE BULL 3X"
Available Weeklys - Equity
"AA","ALCOA CORP COM"
"AAL","AMERICAN AIRLS GROUP INC COM"
"AAOI","APPLIED OPTOELECTRONICS INC COM"
"AAP","ADVANCE AUTO PARTS INC COM"
"AAPL","APPLE INC COM"
"ABBV","ABBVIE INC COM"
"ABNB","AIRBNB INC COM CL A"
"ABR","ARBOR REALTY TRUST INC COM"
"ABT","ABBOTT LABS COM"
"ACB","AURORA CANNABIS INC COM"
"ACHR","ARCHER AVIATION INC COM CL A"
"ACN","ACCENTURE PLC IRELAND SHS CLASS A"
"ADBE","ADOBE INC COM"
"ADI","ANALOG DEVICES INC COM"
"ADM","ARCHER DANIELS MIDLAND CO COM"
"ADP","AUTOMATIC DATA PROCESSING INC COM"
"ADSK","AUTODESK INC COM"
"AEO","AMERICAN EAGLE OUTFITTERS INC COM"
"AFL","AFLAC INC COM"
"AFRM","AFFIRM HLDGS INC COM CL A"
"AG","FIRST MAJESTIC SILVER CORP COM"
"AGNC","AGNC INVT CORP COM"
"AI","C3 AI INC CL A"
"AIG","AMERICAN INTL GROUP INC COM NEW"
"AKAM","AKAMAI TECHNOLOGIES INC COM"
"ALB","ALBEMARLE CORP COM"
"ALGN","ALIGN TECHNOLOGY INC COM"
"ALLY","ALLY FINL INC COM"
"ALT","ALTIMMUNE INC COM NEW"
"AMAT","APPLIED MATLS INC COM"
"AMBA","AMBARELLA INC SHS"
"AMC","AMC ENTMT HLDGS INC CL A NEW"
"AMD","ADVANCED MICRO DEVICES INC COM"
"AMGN","AMGEN INC COM"
"AMSC","AMERICAN SUPERCONDUCTOR CORP SHS NEW"
"AMZN","AMAZON COM INC COM"
"ANET","ARISTA NETWORKS INC COM"
"ANF","ABERCROMBIE & FITCH CO CL A"
"APA","APA CORPORATION COM"
"APLD","APPLIED DIGITAL CORP COM NEW"
"APLS","APELLIS PHARMACEUTICALS INC COM"
"APO","APOLLO GLOBAL MGMT INC COM"
"APPS","DIGITAL TURBINE INC COM NEW"
"APT","ALPHA PRO TECH LTD COM"
"AR","ANTERO RESOURCES CORP COM"
"ARDX","ARDELYX INC COM"
"ARM","ARM HOLDINGS PLC SPONSORED ADR"
"ASAN","ASANA INC CL A"
"ASML","ASML HOLDING N V N Y REGISTRY SHS"
"ASO","ACADEMY SPORTS & OUTDOORS INC COM"
"ASTS","AST SPACEMOBILE INC COM CL A"
"ATMU","ATMUS FILTRATION TECHNOLOGIES COM"
"AVGO","BROADCOM INC COM"
"AVXL","ANAVEX LIFE SCIENCES CORP COM NEW"
"AXP","AMERICAN EXPRESS CO COM"
"AZN","ASTRAZENECA PLC SPONSORED ADR"
"BA","BOEING CO COM"
"BABA","ALIBABA GROUP HLDG LTD SPONSORED ADS"
"BAC","BANK AMERICA CORP COM"
"BAX","BAXTER INTL INC COM"
"BB","BLACKBERRY LTD COM"
"BBAI","BIGBEAR AI HLDGS INC COM"
"BBIO","BRIDGEBIO PHARMA INC COM"
"BBWI","BATH & BODY WORKS INC COM"
"BBY","BEST BUY INC COM"
"BEKE","KE HLDGS INC SPONSORED ADS"
"BHC","BAUSCH HEALTH COS INC COM"
"BIDU","BAIDU INC SPON ADR REP A"
"BIIB","BIOGEN INC COM"
"BILI","BILIBILI INC SPONS ADS REP Z"
"BILL","BILL HOLDINGS INC COM"
"BITF","BITFARMS LTD COM"
"BKNG","BOOKING HOLDINGS INC COM"
"BLK","BLACKROCK INC COM"
"BLNK","BLINK CHARGING CO COM"
"BMBL","BUMBLE INC COM CL A"
"BMY","BRISTOL-MYERS SQUIBB CO COM"
"BP","BP PLC SPONSORED ADR"
"BROS","DUTCH BROS INC CL A"
"BTBT","BIT DIGITAL INC SHS"
"BTU","PEABODY ENERGY CORP COM"
"BUD","ANHEUSER BUSCH INBEV SA/NV SPONSORED ADR"
"BURL","BURLINGTON STORES INC COM"
"BX","BLACKSTONE INC COM"
"BYND","BEYOND MEAT INC COM"
"BYON","BEYOND INC COM"
"C","CITIGROUP INC COM NEW"
"CAG","CONAGRA BRANDS INC COM"
"CAH","CARDINAL HEALTH INC COM"
"CAN","CANAAN INC SPONSORED ADS"
"CAR","AVIS BUDGET GROUP COM"
"CART","MAPLEBEAR INC COM"
"CAT","CATERPILLAR INC COM"
"CAVA","CAVA GROUP INC COM"
"CBOE","Cboe Global Markets, Inc."
"CC","CHEMOURS CO COM"
"CCCC","C4 THERAPEUTICS INC COM STK"
"CCJ","CAMECO CORP COM"
"CCL","CARNIVAL CORP PAIRED CTF"
"CELH","CELSIUS HLDGS INC COM NEW"
"CF","CF INDS HLDGS INC COM"
"CGC","CANOPY GROWTH CORP COM NEW"
"CHPT","CHARGEPOINT HOLDINGS INC COM CL A"
"CHTR","CHARTER COMMUNICATIONS INC NEW CL A"
"CHWY","CHEWY INC CL A"
"CI","THE CIGNA GROUP COM"
"CIFR","CIPHER MINING INC COM"
"CL","COLGATE PALMOLIVE CO COM"
"CLF","CLEVELAND-CLIFFS INC NEW COM"
"CLOV","CLOVER HEALTH INVESTMENTS CORP COM CL A"
"CLSK","CLEANSPARK INC COM NEW"
"CLX","CLOROX CO DEL COM"
"CMA","COMERICA INC COM"
"CMCSA","COMCAST CORP NEW CL A"
"CME","CME GROUP INC COM"
"CMG","CHIPOTLE MEXICAN GRILL INC COM"
"CMI","CUMMINS INC COM"
"CNC","CENTENE CORP DEL COM"
"CODX","CO-DIAGNOSTICS INC COM"
"COF","CAPITAL ONE FINL CORP COM"
"COHR","COHERENT CORP COM"
"COIN","COINBASE GLOBAL INC COM CL A"
"COP","CONOCOPHILLIPS COM"
"COST","COSTCO WHSL CORP NEW COM"
"COTY","COTY INC COM CL A"
"CPB","CAMPBELL SOUP CO COM"
"CPNG","COUPANG INC CL A"
"CRM","SALESFORCE INC COM"
"CROX","CROCS INC COM"
"CRSP","CRISPR THERAPEUTICS AG NAMEN AKT"
"CRWD","CROWDSTRIKE HLDGS INC CL A"
"CSCO","CISCO SYS INC COM"
"CSIQ","CANADIAN SOLAR INC COM"
"CSTM","CONSTELLIUM SE CL A SHS"
"CSX","CSX CORP COM"
"CTRA","COTERRA ENERGY INC COM"
"CVE","CENOVUS ENERGY INC COM"
"CVNA","CARVANA CO CL A"
"CVS","CVS HEALTH CORP COM"
"CVX","CHEVRON CORP NEW COM"
"CYTK","CYTOKINETICS INC COM NEW"
"CZR","CAESARS ENTERTAINMENT INC NEW COM"
"DAL","DELTA AIR LINES INC DEL COM NEW"
"DASH","DOORDASH INC CL A"
"DB","DEUTSCHE BANK A G NAMEN AKT"
"DBX","DROPBOX INC CL A"
"DD","DUPONT DE NEMOURS INC COM"
"DDOG","DATADOG INC CL A COM"
"DE","DEERE & CO COM"
"DELL","DELL TECHNOLOGIES INC CL C"
"DFS","DISCOVER FINL SVCS COM"
"DG","DOLLAR GEN CORP NEW COM"
"DHI","D R HORTON INC COM"
"DHR","DANAHER CORPORATION COM"
"DIS","DISNEY WALT CO COM"
"DKNG","DRAFTKINGS INC NEW COM CL A"
"DKS","DICKS SPORTING GOODS INC COM"
"DLR","DIGITAL RLTY TR INC COM"
"DLTR","DOLLAR TREE INC COM"
"DOCU","DOCUSIGN INC COM"
"DOW","DOW INC COM"
"DPZ","DOMINOS PIZZA INC COM"
"DVN","DEVON ENERGY CORP NEW COM"
"DWAC","DIGITAL WORLD ACQUISITION CORP CLASS A COM"
"DXCM","DEXCOM INC COM"
"EA","ELECTRONIC ARTS INC COM"
"EBAY","EBAY INC. COM"
"EDIT","EDITAS MEDICINE INC COM"
"EDU","NEW ORIENTAL ED & TECHNOLOGY G SPON ADR"
"EL","LAUDER ESTEE COS INC CL A"
"ELF","E L F BEAUTY INC COM"
"ELV","ELEVANCE HEALTH INC COM"
"EMR","EMERSON ELEC CO COM"
"ENPH","ENPHASE ENERGY INC COM"
"ENVX","ENOVIX CORPORATION COM"
"EOG","EOG RES INC COM"
"EOSE","EOS ENERGY ENTERPRISES INC COM CL A"
"EPD","ENTERPRISE PRODS PARTNERS L P COM"
"EQT","EQT CORP COM"
"ET","ENERGY TRANSFER L P COM UT LTD PTN"
"ETSY","ETSY INC COM"
"EXPE","EXPEDIA GROUP INC COM NEW"
"F","FORD MTR CO DEL COM"
"FANG","DIAMONDBACK ENERGY INC COM"
"FCEL","FUELCELL ENERGY INC COM"
"FCX","FREEPORT-MCMORAN INC CL B"
"FDX","FEDEX CORP COM"
"FFIE","FARADAY FUTRE INTLGT ELCTR INC COM CL A NEW"
"FHN","FIRST HORIZON CORPORATION COM"
"FI","FISERV INC COM"
"FIS","FIDELITY NATL INFORMATION SVCS COM"
"FITB","FIFTH THIRD BANCORP COM"
"FL","FOOT LOCKER INC COM"
"FOXA","FOX CORP CL A COM"
"FSLR","FIRST SOLAR INC COM"
"FSLY","FASTLY INC CL A"
"FSR","FISKER INC CL A COM STK"
"FTNT","FORTINET INC COM"
"FUBO","FUBOTV INC COM"
"FUTU","FUTU HLDGS LTD SPON ADS CL A"
"GD","GENERAL DYNAMICS CORP COM"
"GDDY","GODADDY INC CL A"
"GE","GENERAL ELECTRIC CO COM NEW"
"GEHC","GE HEALTHCARE TECHNOLOGIES INC COMMON STOCK"
"GEO","GEO GROUP INC NEW COM"
"GILD","GILEAD SCIENCES INC COM"
"GIS","GENERAL MLS INC COM"
"GLW","CORNING INC COM"
"GM","GENERAL MTRS CO COM"
"GME","GAMESTOP CORP NEW CL A"
"GNRC","GENERAC HLDGS INC COM"
"GOEV","CANOO INC COM CL A"
"GOLD","BARRICK GOLD CORP COM"
"GOOG","ALPHABET INC CAP STK CL C"
"GOOGL","ALPHABET INC CAP STK CL A"
"GOOS","CANADA GOOSE HLDGS INC SHS SUB VTG"
"GPS","GAP INC COM"
"GRPN","GROUPON INC COM NEW"
"GS","GOLDMAN SACHS GROUP INC COM"
"GSAT","GLOBALSTAR INC COM"
"GSK","GSK PLC SPONSORED ADR"
"GT","GOODYEAR TIRE & RUBR CO COM"
"GTLB","GITLAB INC CLASS A COM"
"HAL","HALLIBURTON CO COM"
"HD","HOME DEPOT INC COM"
"HE","HAWAIIAN ELEC INDUSTRIES COM"
"HELE","HELEN OF TROY LTD COM"
"HES","HESS CORP COM"
"HIVE","HIVE DIGITAL TECHNOLOGIES LTD COM NEW"
"HL","HECLA MNG CO COM"
"HLF","HERBALIFE LTD COM SHS"
"HOG","HARLEY DAVIDSON INC COM"
"HON","HONEYWELL INTL INC COM"
"HOOD","ROBINHOOD MKTS INC COM CL A"
"HPQ","HP INC COM"
"HRL","HORMEL FOODS CORP COM"
"HSBC","HSBC HLDGS PLC SPON ADR NEW"
"HSY","HERSHEY CO COM"
"HUM","HUMANA INC COM"
"HUT","HUT 8 CORP COM"
"IBM","INTERNATIONAL BUSINESS MACHS COM"
"IEP","ICAHN ENTERPRISES LP DEPOSITARY UNIT"
"ILMN","ILLUMINA INC COM"
"IMVT","IMMUNOVANT INC COM"
"INO","INOVIO PHARMACEUTICALS INC COM SHS"
"INTC","INTEL CORP COM"
"INTU","INTUIT COM"
"IONQ","IONQ INC COM"
"IOT","SAMSARA INC COM CL A"
"IOVA","IOVANCE BIOTHERAPEUTICS INC COM"
"IP","INTERNATIONAL PAPER CO COM"
"IQ","IQIYI INC SPONSORED ADS"
"IRBT","IROBOT CORP COM"
"IREN","IRIS ENERGY LTD ORDINARY SHARES"
"ISRG","INTUITIVE SURGICAL INC COM NEW"
"IVR","INVESCO MORTGAGE CAPITAL INC COM"
"JBLU","JETBLUE AWYS CORP COM"
"JD","JD.COM INC SPON ADR CL A"
"JMIA","JUMIA TECHNOLOGIES AG SPONSORED ADS"
"JNJ","JOHNSON & JOHNSON COM"
"JOBY","JOBY AVIATION INC COMMON STOCK"
"JPM","JPMORGAN CHASE & CO COM"
"JWN","NORDSTROM INC COM"
"KEY","KEYCORP COM"
"KGC","KINROSS GOLD CORP COM"
"KHC","KRAFT HEINZ CO COM"
"KKR","KKR & CO INC COM"
"KLAC","KLA CORP COM NEW"
"KMB","KIMBERLY-CLARK CORP COM"
"KMI","KINDER MORGAN INC DEL COM"
"KMX","CARMAX INC COM"
"KO","COCA COLA CO COM"
"KR","KROGER CO COM"
"KSS","KOHLS CORP COM"
"KVUE","KENVUE INC COM"
"LAZR","LUMINAR TECHNOLOGIES INC COM CL A"
"LCID","LUCID GROUP INC COM"
"LEN","LENNAR CORP CL A"
"LI","LI AUTO INC SPONSORED ADS"
"LII","LENNOX INTL INC COM"
"LIN","LINDE PLC SHS"
"LLY","ELI LILLY & CO COM"
"LMND","LEMONADE INC COM"
"LMT","LOCKHEED MARTIN CORP COM"
"LNG","CHENIERE ENERGY INC COM NEW"
"LOW","LOWES COS INC COM"
"LRCX","LAM RESEARCH CORP COM"
"LULU","LULULEMON ATHLETICA INC COM"
"LUMN","LUMEN TECHNOLOGIES INC COM"
"LUV","SOUTHWEST AIRLS CO COM"
"LVS","LAS VEGAS SANDS CORP COM"
"LYFT","LYFT INC CL A COM"
"M","MACYS INC COM"
"MA","MASTERCARD INCORPORATED CL A"
"MANU","MANCHESTER UTD PLC NEW ORD CL A"
"MAR","MARRIOTT INTL INC NEW CL A"
"MARA","MARATHON DIGITAL HOLDINGS INC COM"
"MCD","MCDONALDS CORP COM"
"MCK","MCKESSON CORP COM"
"MDB","MONGODB INC CL A"
"MDLZ","MONDELEZ INTL INC CL A"
"MDT","MEDTRONIC PLC SHS"
"MELI","MERCADOLIBRE INC COM"
"MET","METLIFE INC COM"
"META","META PLATFORMS INC CL A"
"MGM","MGM RESORTS INTERNATIONAL COM"
"MLCO","MELCO RESORTS AND ENTMNT LTD ADR"
"MMM","3M CO COM"
"MNKD","MANNKIND CORP COM NEW"
"MO","ALTRIA GROUP INC COM"
"MOS","MOSAIC CO NEW COM"
"MPC","MARATHON PETE CORP COM"
"MPW","MEDICAL PPTYS TRUST INC COM"
"MRK","MERCK & CO INC COM"
"MRNA","MODERNA INC COM"
"MRO","MARATHON OIL CORP COM"
"MRVL","MARVELL TECHNOLOGY INC COM"
"MS","MORGAN STANLEY COM NEW"
"MSFT","MICROSOFT CORP COM"
"MSTR","MICROSTRATEGY INC CL A NEW"
"MT","ARCELORMITTAL SA LUXEMBOURG NY REGISTRY SH"
"MTCH","MATCH GROUP INC NEW COM"
"MU","MICRON TECHNOLOGY INC COM"
"MVIS","MICROVISION INC DEL COM NEW"
"NCLH","NORWEGIAN CRUISE LINE HLDG LTD SHS"
"NEE","NEXTERA ENERGY INC COM"
"NEGG","NEWEGG COMMERCE INC COMMON SHARES"
"NEM","NEWMONT CORP COM"
"NEP","NEXTERA ENERGY PARTNERS LP COM UNIT PART IN"
"NET","CLOUDFLARE INC CL A COM"
"NFLX","NETFLIX INC COM"
"NIO","NIO INC SPON ADS"
"NKE","NIKE INC CL B"
"NKLA","NIKOLA CORP COM"
"NLY","ANNALY CAPITAL MANAGEMENT INC COM NEW"
"NNDM","NANO DIMENSION LTD SPONSORD ADS NEW"
"NOC","NORTHROP GRUMMAN CORP COM"
"NOK","NOKIA CORP SPONSORED ADR"
"NOW","SERVICENOW INC COM"
"NSC","NORFOLK SOUTHN CORP COM"
"NTAP","NETAPP INC COM"
"NTES","NETEASE INC SPONSORED ADS"
"NTR","NUTRIEN LTD COM"
"NU","NU HLDGS LTD ORD SHS CL A"
"NUE","NUCOR CORP COM"
"NVAX","NOVAVAX INC COM NEW"
"NVDA","NVIDIA CORPORATION COM"
"NVO","NOVO-NORDISK A S ADR"
"NXPI","NXP SEMICONDUCTORS N V COM"
"NYCB","NEW YORK CMNTY BANCORP INC COM"
"OKTA","OKTA INC CL A"
"ON","ON SEMICONDUCTOR CORP COM"
"ONON","ON HLDG AG NAMEN AKT A"
"OPEN","OPENDOOR TECHNOLOGIES INC COM"
"ORCL","ORACLE CORP COM"
"OXY","OCCIDENTAL PETE CORP COM"
"OZK","BANK OZK LITTLE ROCK ARK COM"
"PAA","PLAINS ALL AMERN PIPELINE L P UNIT LTD PARTN"
"PANW","PALO ALTO NETWORKS INC COM"
"PARA","PARAMOUNT GLOBAL CLASS B COM"
"PATH","UIPATH INC CL A"
"PBR","PETROLEO BRASILEIRO SA PETROBR SPONSORED ADR"
"PCG","PG&E CORP COM"
"PCT","PURECYCLE TECHNOLOGIES INC COM"
"PDD","PDD HOLDINGS INC SPONSORED ADS"
"PENN","PENN ENTERTAINMENT INC COM"
"PEP","PEPSICO INC COM"
"PFE","PFIZER INC COM"
"PG","PROCTER AND GAMBLE CO COM"
"PHM","PULTE GROUP INC COM"
"PHUN","PHUNWARE INC COM NEW"
"PINS","PINTEREST INC CL A"
"PLCE","CHILDRENS PL INC NEW COM"
"PLTR","PALANTIR TECHNOLOGIES INC CL A"
"PLUG","PLUG POWER INC COM NEW"
"PM","PHILIP MORRIS INTL INC COM"
"PNC","PNC FINL SVCS GROUP INC COM"
"PPG","PPG INDS INC COM"
"PSX","PHILLIPS 66 COM"
"PTON","PELOTON INTERACTIVE INC CL A COM"
"PXD","PIONEER NAT RES CO COM"
"PYPL","PAYPAL HLDGS INC COM"
"QCOM","QUALCOMM INC COM"
"QS","QUANTUMSCAPE CORP COM CL A"
"RACE","FERRARI N V COM"
"RBLX","ROBLOX CORP CL A"
"RCL","ROYAL CARIBBEAN GROUP COM"
"RDFN","REDFIN CORP COM"
"RDW","REDWIRE CORPORATION COM"
"REGN","REGENERON PHARMACEUTICALS COM"
"RH","RH COM"
"RIG","TRANSOCEAN LTD REGISTERED SHS"
"RILY","B. RILEY FINANCIAL INC COM"
"RIOT","RIOT PLATFORMS INC COM"
"RIVN","RIVIAN AUTOMOTIVE INC COM CL A"
"RKLB","ROCKET LAB USA INC COM"
"RKT","ROCKET COS INC COM CL A"
"RNG","RINGCENTRAL INC CL A"
"ROKU","ROKU INC COM CL A"
"ROST","ROSS STORES INC COM"
"RRC","RANGE RES CORP COM"
"RTX","RTX CORPORATION COM"
"RUM","RUMBLE INC COM CL A"
"RUN","SUNRUN INC COM"
"S","SENTINELONE INC CL A"
"SAVA","CASSAVA SCIENCES INC COM"
"SAVE","SPIRIT AIRLS INC COM"
"SBUX","STARBUCKS CORP COM"
"SCHW","SCHWAB CHARLES CORP COM"
"SE","SEA LTD SPONSORD ADS"
"SEDG","SOLAREDGE TECHNOLOGIES INC COM"
"SFIX","STITCH FIX INC COM CL A"
"SHAK","SHAKE SHACK INC CL A"
"SHEL","SHELL PLC SPON ADS"
"SHOP","SHOPIFY INC CL A"
"SHOT","SAFETY SHOT INC COM NEW"
"SIG","SIGNET JEWELERS LIMITED SHS"
"SIRI","SIRIUS XM HOLDINGS INC COM"
"SLB","SCHLUMBERGER LTD COM STK"
"SMCI","SUPER MICRO COMPUTER INC COM"
"SNAP","SNAP INC CL A"
"SNDL","SNDL INC COM"
"SNOW","SNOWFLAKE INC CL A"
"SNV","SYNOVUS FINL CORP COM NEW"
"SO","SOUTHERN CO COM"
"SOFI","SOFI TECHNOLOGIES INC COM"
"SONY","SONY GROUP CORP SPONSORED ADR"
"SOUN","SOUNDHOUND AI INC CLASS A COM"
"SPCE","VIRGIN GALACTIC HOLDINGS INC COM"
"SPGI","S&P GLOBAL INC COM"
"SPHR","SPHERE ENTERTAINMENT CO CL A"
"SPOT","SPOTIFY TECHNOLOGY S A SHS"
"SPR","SPIRIT AEROSYSTEMS HLDGS INC COM CL A"
"SPWR","SUNPOWER CORP COM"
"SQ","BLOCK INC CL A"
"SRPT","SAREPTA THERAPEUTICS INC COM"
"STNE","STONECO LTD COM CL A"
"STNG","SCORPIO TANKERS INC SHS"
"STX","SEAGATE TECHNOLOGY HLDNGS PLC ORD SHS"
"STZ","CONSTELLATION BRANDS INC CL A"
"SU","SUNCOR ENERGY INC NEW COM"
"SWKS","SKYWORKS SOLUTIONS INC COM"
"SWN","SOUTHWESTERN ENERGY CO COM"
"SYM","SYMBOTIC INC CLASS A COM"
"T","AT&T INC COM"
"TAL","TAL EDUCATION GROUP SPONSORED ADS"
"TDOC","TELADOC HEALTH INC COM"
"TEAM","ATLASSIAN CORPORATION CL A"
"TECK","TECK RESOURCES LTD CL B"
"TELL","TELLURIAN INC NEW COM"
"TEVA","TEVA PHARMACEUTICAL INDS LTD SPONSORED ADS"
"TFC","TRUIST FINL CORP COM"
"TGT","TARGET CORP COM"
"TGTX","TG THERAPEUTICS INC COM"
"TJX","TJX COS INC NEW COM"
"TLRY","TILRAY BRANDS INC COM"
"TMO","THERMO FISHER SCIENTIFIC INC COM"
"TMUS","T-MOBILE US INC COM"
"TOL","TOLL BROTHERS INC COM"
"TOST","TOAST INC CL A"
"TPR","TAPESTRY INC COM"
"TRIP","TRIPADVISOR INC COM"
"TSCO","TRACTOR SUPPLY CO COM"
"TSLA","TESLA INC COM"
"TSM","TAIWAN SEMICONDUCTOR MFG LTD SPONSORED ADS"
"TSN","TYSON FOODS INC CL A"
"TTD","THE TRADE DESK INC COM CL A"
"TTWO","TAKE-TWO INTERACTIVE SOFTWARE COM"
"TUP","TUPPERWARE BRANDS CORP COM"
"TWLO","TWILIO INC CL A"
"TXN","TEXAS INSTRS INC COM"
"U","UNITY SOFTWARE INC COM"
"UAA","UNDER ARMOUR INC CL A"
"UAL","UNITED AIRLS HLDGS INC COM"
"UBER","UBER TECHNOLOGIES INC COM"
"UEC","URANIUM ENERGY CORP COM"
"ULTA","ULTA BEAUTY INC COM"
"UNH","UNITEDHEALTH GROUP INC COM"
"UNP","UNION PAC CORP COM"
"UPS","UNITED PARCEL SERVICE INC CL B"
"UPST","UPSTART HLDGS INC COM"
"URBN","URBAN OUTFITTERS INC COM"
"URI","UNITED RENTALS INC COM"
"USB","US BANCORP DEL COM NEW"
"UWMC","UWM HOLDINGS CORPORATION COM CL A"
"V","VISA INC COM CL A"
"VALE","VALE S A SPONSORED ADS"
"VERU","VERU INC COM"
"VFC","V F CORP COM"
"VFS","VINFAST AUTO LTD SHS"
"VKTX","VIKING THERAPEUTICS INC COM"
"VLO","VALERO ENERGY CORP COM"
"VOD","VODAFONE GROUP PLC NEW SPONSORED ADR"
"VRT","VERTIV HOLDINGS CO COM CL A"
"VRTX","VERTEX PHARMACEUTICALS INC COM"
"VZ","VERIZON COMMUNICATIONS INC COM"
"W","WAYFAIR INC CL A"
"WAL","WESTERN ALLIANCE BANCORP COM"
"WB","WEIBO CORP SPONSORED ADR"
"WBA","WALGREENS BOOTS ALLIANCE INC COM"
"WBD","WARNER BROS DISCOVERY INC COM SER A"
"WDAY","WORKDAY INC CL A"
"WDC","WESTERN DIGITAL CORP. COM"
"WFC","WELLS FARGO CO NEW COM"
"WHR","WHIRLPOOL CORP COM"
"WKHS","WORKHORSE GROUP INC COM NEW"
"WM","WASTE MGMT INC DEL COM"
"WMB","WILLIAMS COS INC COM"
"WMT","WALMART INC COM"
"WOLF","WOLFSPEED INC COM"
"WPM","WHEATON PRECIOUS METALS CORP COM"
"WULF","TERAWULF INC COM"
"WW","WW INTL INC COM"
"WYNN","WYNN RESORTS LTD COM"
"X","UNITED STATES STL CORP NEW COM"
"XOM","EXXON MOBIL CORP COM"
"XP","XP INC CL A"
"XPEV","XPENG INC ADS"
"YPF","YPF SOCIEDAD ANONIMA SPON ADR CL D"
"Z","ZILLOW GROUP INC CL C CAP STK"
"ZI","ZOOMINFO TECHNOLOGIES INC COMMON STOCK"
"ZIM","ZIM INTEGRATED SHIPPING SERV SHS"
"ZION","ZIONS BANCORPORATION N A COM"
"ZM","ZOOM VIDEO COMMUNICATIONS INC CL A"
"ZS","ZSCALER INC COM"
